A High-Performance Local Taxonomic Database Interface • rOpenSci: taxadb
…
filter_name("Trochalopteron henrici gucenense")  %>%
  mutate(acceptedNameUsage = get_names(acceptedNameUsageID)) %>% 
  select(scientificName, taxonomicStatus, acceptedNameUsage, acceptedNameUsageID)
#> # A tibble: 2 x 4
#>   scientificName          taxonomicStatus acceptedNameUsage    acceptedNameUsag…
#>   <chr>                   <chr>           <chr>                <chr>            
#> 1 Trochalopteron henrici… synonym         Trochalopteron elli… ITIS:916116      
#> 2 Trochalopteron henrici… synonym         Trochalopteron henr… ITIS:916117

Similar functions filter_id, filter_rank, and filter_common take IDs, scientific ranks, or common names, respectively. Here, we can get taxonomic data on all bird names in the Catalogue of Life:

filter_rank(name = "Aves", rank = "class", provider = "col")
#> # A tibble: 36,336 x 21
#>     sort taxonID   scientificName    acceptedNameUsag… taxonomicStatus taxonRank
#>    <int> <chr>     <chr>             <chr>             <chr>           <chr>    
#>  1     1 COL:3148… Nisaetus nanus    COL:3148416       accepted        species  
#>  2     1 COL:3148… Circaetus beaudo… COL:3148666       accepted        species  
#>  3     1 COL:3148… Cariama cristata  COL:3148731       accepted        species  
#>  4     1 COL:3148… Chunga burmeiste… COL:3148732       accepted        species  
#>  5     1 COL:3148… Eurypyga helias   COL:3148733       accepted        species  
#>  6     1 COL:3148… Rhynochetos juba… COL:3148734       accepted        species  
#>  7     1 COL:3148… Leptosomus disco… COL:3148735       accepted        species  
#>  8     1 COL:3148… Neotis heuglinii  COL:3148736       accepted        species  
#>  9     1 COL:3148… Neotis ludwigii   COL:3148737       accepted        species  
#> 10     1 COL:3148… Neotis denhami    COL:3148738       accepted        species  
#> # … with 36,326 more rows, and 15 more variables: kingdom <chr>, phylum <chr>,
#> #   class <chr>, order <chr>, family <chr>, genus <chr>, specificEpithet <chr>,
#> #   infraspecificEpithet <chr>, taxonConceptID <chr>, isExtinct <chr>,
#> #   nameAccordingTo <chr>, namePublishedIn <chr>,
#> #   scientificNameAuthorship <chr>, vernacularName <chr>, input <chr>
…
