Match names that start or contain a specified text string — fuzzy_filter • rOpenSci: taxadb
…
    Examples

# \donttest{
  # \dontshow{
   ## All examples use a temporary directory
   Sys.setenv(TAXADB_HOME=tempdir())
   options("taxadb_default_provider"="itis_test")
  # }

## match any common name containing:
name <- c("woodpecker", "monkey")
fuzzy_filter(name, "vernacularName")

#> # A tibble: 418 x 16
#>    vernacularName  language update_date acceptedNameUsag… taxonID scientificName
#>    <chr>           <chr>    <chr>       <chr>             <chr>   <chr>         
#>  1 South American… English  2002-07-30  ITIS:180095       ITIS:9… Simia apedia  
#>  2 South American… English  2002-07-30  ITIS:180095       ITIS:9… Lemur leucops…
#>  3 South American… English  2002-07-30  ITIS:180095       ITIS:9… Simia morta   
#>  4 South American… English  2002-07-30  ITIS:180095       ITIS:9… Chrysothrix n…
#>  5 South American… English  2002-07-30  ITIS:180095       ITIS:9… Sapajou saimi…
#>  6 South American… English  2002-07-30  ITIS:180095       ITIS:9… Saimiri sciur…
#>  7 South American… English  2002-07-30  ITIS:180095       ITIS:1… Saimiri sciur…
#>  8 Common Squirre… English  2014-06-26  ITIS:180095       ITIS:9… Simia apedia  
#>  9 Common Squirre… English  2014-06-26  ITIS:180095       ITIS:9… Lemur leucops…
#> 10 Common Squirre… English  2014-06-26  ITIS:180095       ITIS:9… Simia morta   
#> # … with 408 more rows, and 10 more variables: taxonRank <chr>,
#> #   taxonomicStatus <chr>, kingdom <chr>, phylum <chr>, class <chr>,
#> #   order <chr>, family <chr>, genus <chr>, specificEpithet <chr>,
#> #   infraspecificEpithet <chr>
…
