Tutorial for taxadb • taxadb
…
filter_name("Trochalopteron henrici gucenense")  %>%
  mutate(acceptedNameUsage = get_names(acceptedNameUsageID)) %>% 
  select(scientificName, taxonomicStatus, acceptedNameUsage, acceptedNameUsageID)
#> # A tibble: 2 x 4
#>   scientificName                   taxonomicStatus acceptedNameUsage       acceptedNameUsageID
#>   <chr>                            <chr>           <chr>                   <chr>              
#> 1 Trochalopteron henrici gucenense synonym         Trochalopteron henrici  ITIS:916117        
#> 2 Trochalopteron henrici gucenense synonym         Trochalopteron elliotii ITIS:916116

Similar functions filter_id, filter_rank, and filter_common take IDs, scientific ranks, or common names, respectively. Here, we can get taxonomic data on all bird names in the Catalogue of Life:

filter_rank(name = "Aves", rank = "class", provider = "col")
#> # A tibble: 35,398 x 21
#>     sort taxonID scientificName acceptedNameUsa… taxonomicStatus taxonRank kingdom phylum class order family genus
#>    <int> <chr>   <chr>          <chr>            <chr>           <chr>     <chr>   <chr>  <chr> <chr> <chr>  <chr>
#>  1     1 COL:35… Sturnella mag… COL:35520416     accepted        species   Animal… Chord… Aves  Pass… Icter… Stur…
#>  2     1 COL:35… Tauraco porph… COL:35530219     accepted        infraspe… Animal… Chord… Aves  Muso… Musop… Taur…
#>  3     1 COL:35… Pyroderus scu… COL:35534370     accepted        infraspe… Animal… Chord… Aves  Pass… Cotin… Pyro…
#>  4     1 COL:35… Dromaius minor COL:35552206     synonym         infraspe… Animal… Chord… Aves  Casu… Droma… Drom…
#>  5     1 COL:35… Lepidocolapte… COL:35525495     accepted        species   Animal… Chord… Aves  Pass… Furna… Lepi…
#>  6     1 COL:35… Casuarius pap… COL:35552204     synonym         infraspe… Animal… Chord… Aves  Casu… Casua… Casu…
#>  7     1 COL:35… Forpus modest… COL:35536431     accepted        species   Animal… Chord… Aves  Psit… Psitt… Forp…
#>  8     1 COL:35… Pterocnemia p… COL:35552203     synonym         infraspe… Animal… Chord… Aves  Rhei… Rheid… Rhea 
#>  9     1 COL:35… Ceyx lepidus … COL:35532279     accepted        infraspe… Animal… Chord… Aves  Cora… Alced… Ceyx 
#> 10     1 COL:35… Rhea tarapace… COL:35552202     synonym         infraspe… Animal… Chord… Aves  Rhei… Rheid… Rhea 
#> # … with 35,388 more rows, and 9 more variables: specificEpithet <chr>, infraspecificEpithet <chr>, taxonConceptID <chr>,
#> #   isExtinct <chr>, nameAccordingTo <chr>, namePublishedIn <chr>, scientificNameAuthorship <chr>, vernacularName <chr>,
#> #   input <chr>
…
